…
    ## See spec(...) for full column specifications.

``` r
NYCsub_data 
```

    ## # A tibble: 1,868 x 19
    ##    line  station_latitude station_longitu~ route1 route2 route3 route4
    ##    <chr>            <dbl>            <dbl> <chr>  <chr>  <chr>  <chr> 
    ##  1 4 Av~             40.7            -74.0 R      <NA>   <NA>   <NA>  
    ##  2 4 Av~             40.7            -74.0 R      <NA>   <NA>   <NA>  
    ##  3 4 Av~             40.7            -74.0 N      R      <NA>   <NA>  
    ##  4 4 Av~             40.7            -74.0 N      R      <NA>   <NA>  
    ##  5 4 Av~             40.7            -74.0 N      R      <NA>   <NA>  
    ##  6 4 Av~             40.6            -74.0 R      <NA>   <NA>   <NA>  
    ##  7 4 Av~             40.6            -74.0 R      <NA>   <NA>   <NA>  
    ##  8 4 Av~             40.6            -74.0 R      <NA>   <NA>   <NA>  
    ##  9 4 Av~             40.6            -74.0 R      <NA>   <NA>   <NA>  
    ## 10 4 Av~             40.6            -74.0 R      <NA>   <NA>   <NA>  
    ## # ... with 1,858 more rows, and 12 more variables: route5 <chr>,
    ## #   route6 <chr>, route7 <chr>, route8 <int>, route9 <int>, route10 <int>,
    ## #   route11 <int>, entry <chr>, vending <chr>, entrance_type <chr>,
    ## #   ada <lgl>, ada_notes <chr>
